Итоговый проект
…
Примеры collaborative filtering

Рассмотрим сценарии,при котором у пользователя а) нет оценок

данный сценарий мы рассмотреть не можем, так как наша модель его не
предусматривает и работает только с пользователями, у которых есть
оценки

б) все оценки низкие и средняя оценка следовательно тоже низкая

for_ibcf_vse_niz = ratings %>% group_by(user_id) %>% mutate(mean_score = mean(rating)) %>% arrange(mean_score)
for_ibcf_vse_niz

## # A tibble: 35,235 × 4
## # Groups:   user_id [3,000]
##    item_id user_id rating mean_score
##      <dbl>   <dbl>  <dbl>      <dbl>
##  1    4370  871551    1         1.17
##  2    2628  871551    0.5       1.17
##  3   87430  871551    0.5       1.17
##  4   53996  871551    1.5       1.17
##  5   88140  871551    0.5       1.17
##  6    4993  871551    3         1.17
##  7    6659  833093    1.5       1.43
##  8      48  833093    0.5       1.43
##  9       1  833093    0.5       1.43
## 10    4878  833093    3         1.43
## # ℹ 35,225 more rows
…
Если пользователь оценивает низко фильмы определенного жанра, то мы
ждем от рекомендательной системы, что она не будет предлагать
пользователю фильмы такого же жанра, а предложит другие фильмы,
непохожие на те,которые пользователь оценил низко

Пользователю,который низко оценил фильмы жанра action и drama, были
рекомендованы фильма жанра action и drama, что мы не ждали от функции.
Здесь она работает не так, как должна была бы.

в) все оценки высокие и средняя оценка следовательно тоже высокая

for_ibcf_vse_vis = ratings %>% group_by(user_id) %>% mutate(mean_score = mean(rating)) %>% arrange(-mean_score)
for_ibcf_vse_vis

## # A tibble: 35,235 × 4
## # Groups:   user_id [3,000]
##    item_id user_id rating mean_score
##      <dbl>   <dbl>  <dbl>      <dbl>
##  1    2628  321346      5          5
##  2   94777  321346      5          5
##  3    6709  321346      5          5
##  4    8807  321346      5          5
##  5   45722  321346      5          5
##  6    6953  671196      5          5
##  7     410  321346      5          5
##  8    4306  671196      5          5
##  9   52722  671196      5          5
## 10   46970  321346      5          5
## # ℹ 35,225 more rows

id нужного нам пользователя - 321346

for_ibcf_321346 = ratings %>% filter(user_id == "321346") #отфильтровываем данные по одному пользователю из таблицы с оценками фильмов 
filmsID_vec_321346 = for_ibcf_321346  %>% select(item_id) %>% pull() #создаем вектор с id фильмов
ratings_vector_321346= for_ibcf_321346  %>% select(rating) %>% pull() #создаем вектор с оценками фильмов

for_ibcf_321346

## # A tibble: 25 × 3
##    item_id user_id rating
##      <dbl>   <dbl>  <dbl>
##  1    2628  321346      5
##  2   94777  321346      5
##  3    6709  321346      5
##  4    8807  321346      5
##  5   45722  321346      5
##  6     410  321346      5
##  7   46970  321346      5
##  8  103042  321346      5
##  9   63992  321346      5
## 10   85510  321346      5
## # ℹ 15 more rows

Тестируем с помощью функции CF

get_recommendations("321346", filmsID_vec_4370, ratings_vector_4370)

## [1] "2083"  "32587" "3793"  "91077" "1372"  "4014"

Посмотрим на фильмы, которые пользователь оценил:

for_ibcf_321346 %>% inner_join(metadata, by = "item_id") %>% select(title,rating,genre)

## # A tibble: 21 × 3
##    title                                      rating genre    
##    <chr>                                       <dbl> <chr>    
##  1 Star Wars: Episode I - The Phantom Menace       5 Action   
##  2 Once Upon a Time in Mexico                      5 Action   
##  3 Pirates of the Caribbean: Dead Man's Chest      5 Action   
##  4 Addams Family Values                            5 Comedy   
##  5 Man of Steel                                    5 Action   
##  6 Twilight                                        5 Drama    
##  7 Sucker Punch                                    5 Action   
##  8 Her                                             5 Drama    
##  9 Cloud Atlas                                     5 Action   
## 10 Over the Hedge                                  5 Animation
## # ℹ 11 more rows
…
Вышерассмотренные примеры б) и в) обобщают примеры, предложенные в
нескольких отзывах в peer review

Отдельно рассмотрим сценарий, при котором для всех фильмов жанра
crime пользователь поставил низкие оценки

Для начала еще раз обратимся к таблице с оценками меньше 3

for_ibcf_vse_niz %>% arrange(mean_score)

## # A tibble: 35,235 × 4
## # Groups:   user_id [3,000]
##    item_id user_id rating mean_score
##      <dbl>   <dbl>  <dbl>      <dbl>
##  1    4370  871551    1         1.17
##  2    2628  871551    0.5       1.17
##  3   87430  871551    0.5       1.17
##  4   53996  871551    1.5       1.17
##  5   88140  871551    0.5       1.17
##  6    4993  871551    3         1.17
##  7    6659  833093    1.5       1.43
##  8      48  833093    0.5       1.43
##  9       1  833093    0.5       1.43
## 10    4878  833093    3         1.43
## # ℹ 35,225 more rows
…
for (id in (unique(metadata1_net$item_id))[1:500]) {
  r = ratings %>% filter(item_id == id)
  if (mean(r$rating) < 2) {
    item = id
    print(id)
    break
  }
}

ratings %>% filter(item_id == id)

## # A tibble: 127 × 3
##    item_id user_id rating
##      <dbl>   <dbl>  <dbl>
##  1   70286  273028    5  
##  2   70286  306904    3.5
##  3   70286  585578    3  
##  4   70286  582723    4.5
##  5   70286  580759    5  
##  6   70286  529358    3.5
##  7   70286   69007    1.5
##  8   70286  201796    4  
##  9   70286  983867    4.5
## 10   70286  514527    4  
## # ℹ 117 more rows
…
